{
	"common": {
		"brand": "Salus",
		"countries": {
			"cz": "Czechy",
			"de": "Niemcy",
			"dk": "Dania",
			"es": "Hiszpania",
			"fr": "Francja",
			"hu": "Węgry",
			"it": "Włochy",
			"nl": "Holandia",
			"no": "Norwegia",
			"pl": "Polska",
			"ro": "Rumunia",
			"ru": "Rosja",
			"sk": "Słowacja",
			"sl": "Słowenia",
			"sv": "Szwecja",
			"uk": "Wielka Brytania",
			"us": "Stany Zjednoczone"
		},
		"daysOfWeek": {
			"abbreviations": {
				"friday": "Pt.",
				"monday": "Pon.",
				"saturday": "Sob.",
				"sunday": "Niedz.",
				"thursday": "Czw.",
				"tuesday": "Wt.",
				"wednesday": "Śr."
			}
		},
		"footer": {
			"copyrightText": "Salus Controls, Inc. Wszelkie prawa zastrzeżone.",
			"privacyPolicy": "Polityka prywatności",
			"termsAndConditions": "Warunki"
		},
		"header": {
			"about": "Informacje o tej aplikacji",
			"allEquipment": "Wszystkie urządzenia",
			"contactSupport": "Kontakt z Działem Pomocy",
			"dataCollection": "Zbieranie danych",
			"equipment": "Urządzenia",
			"faq": "Często zadawane pytania",
			"gateways": "Bramy",
			"help": "Pomoc",
			"home": "Dom",
			"logout": "Wyloguj",
			"messageCenter": "Centrum wiadomości",
			"myStatus": "Mój status",
			"oneTouch": "OneTouch",
			"profile": "Profil",
			"settings": "Ustawienia",
			"setupEquipment": "Konfiguracja urządzeń"
		},
		"labels": {
			"accept": "Akceptuj",
			"apply": "Zastosuj",
			"back": "Wstecz",
			"cancel": "Anuluj",
			"close": "Zamknij",
			"create": "Utwórz",
			"daily": "Codziennie",
			"delete": "Usuń",
			"edit": "Edytuj",
			"email": "E-mail",
			"enable": "Włącz",
			"finished": "Zakończone",
			"monthly": "Co miesiąc",
			"next": "Dalej",
			"no": "Nie",
			"off": "wył.",
			"ok": "OK",
			"on": "wł.",
			"save": "Zapisz",
			"saved": "Zapisano",
			"select": "Wybierz pozycję",
			"set": "Ustaw",
			"skip": "Pomiń",
			"turnOff": "Wyłącz",
			"turnOn": "Włącz",
			"weekly": "Co tydzień",
			"yearly": "Co rok",
			"yes": "Tak"
		},
		"languages": {
			"cs": "Czeski",
			"da": "Duński",
			"de": "Niemiecki",
			"en-uk": "Angielski (Wielka Brytania)",
			"en-us": "Angielski (Stany Zjednoczone)",
			"es": "Hiszpański",
			"fr": "Francuski",
			"hu": "Węgierski",
			"it": "Włoski",
			"nl": "Holenderski",
			"no": "Norweski",
			"pl": "Polski",
			"ro": "Rumuński",
			"ru": "Rosyjski",
			"sk": "Słowacki",
			"sl": "Słoweński",
			"sv": "Szwedzki"
		},
		"lessDetails": "Mniej szczegółów",
		"loadingMessage": "Wczytywanie serwisu Salus...",
		"months": {
			"april": "kwiecień",
			"august": "sierpień",
			"december": "grudzień",
			"february": "luty",
			"january": "styczeń",
			"july": "lipiec",
			"june": "czerwiec",
			"march": "marzec",
			"may": "maj",
			"november": "listopad",
			"october": "październik",
			"september": "wrzesień"
		},
		"moreDetails": "Więcej szczegółów",
		"symbols": {
			"celsius": "&#8451;",
			"fahrenheit": "&#8457;"
		},
		"validation": {
			"ayla": {
				"cantbeblank": "To pole nie może być puste.",
				"confirmaccountbeforecontinue": "Potwierdź konto, zanim przejdziesz dalej",
				"hasalreadybeentaken": "Ten adres e-mail jest już zajęty",
				"isinvalid": "To pole jest nieprawidłowe",
				"tokeninvalid": "Ten znacznik jest nieprawidłowy",
				"useridisalreadygratnedforthatresource": "Ten adres e-mail jest już zajęty"
			},
			"default": {
				"requiredField": "To pole jest wymagane"
			},
			"email": {
				"alreadyConfirmed": "Ten adres e-mail został już potwierdzony",
				"notFound": "Brak znanego konta dla tego adresu e-mail",
				"notMatching": "Podane adresy e-mail nie pasują do siebie",
				"notValid": "Podany adres e-mail nie jest prawidłowym adresem e-mail"
			},
			"integerRangeFormatted": "Liczba całkowita z przedziału od __min__ do __max__",
			"ipAddress": "Ten adres jest nieprawidłowy. Użyj formy x.x.x.x",
			"mobile": {
				"notValid": "To nie jest prawidłowy numer telefonu",
				"selectCountry": "Wybierz najpierw kraj"
			},
			"numberRangeFormatted": "Liczba z przedzału od __min__ do __max__",
			"passwords": {
				"notMatching": "Hasła nie pasują do siebie",
				"tooLong": "Hasła nie mogą składać się z więcej niż czternastu znaków",
				"tooShort": "Hasła muszą składać się przynajmniej z sześciu znaków",
				"tooSimple": "To hasło jest zbyt łatwe"
			},
			"postcode": {
				"notValid": "Nieprawidłowy kod pocztowy"
			},
			"wordsOnly": "W tym polu można wpisywać tylko znaki, z których składają się słowa. (bez cyfr)",
			"zip": {
				"notValid": "Ten kod pocztowy jest nieprawidłowy. Kod powinien być numerem złożonym z maksymalnie 9 cyfr"
			}
		}
	},
	"dashboard": {
		"addGateway": "Dodaj nową bramę",
		"header": {
			"addAPhoto": "Dodaj zdjęcie",
			"cancelScan": "Anulować skanowanie?",
			"choosePhoto": "Wybierz zdjęcie z biblioteki",
			"scanComplete": "Zakończono skanowanie",
			"scanMyHome": "Skanuj mój dom",
			"scanned": "zeskanowano",
			"scanning": "Skanowanie...",
			"takeAPhoto": "Zrób zdjęcie"
		},
		"welcomeTile": {
			"description": "Z poziomu pulpitu można szybko przeglądać i zarządzać swoimi urządzeniami. Dostępne funkcje przypinania urządzeń, OneTouch oraz inne pozwalają bezproblemowo zarządzać domem z poziomu jednego ekranu",
			"title": "Witamy na pulpicie!"
		}
	},
	"email": {
		"dynamic_body": {
			"title": "Witaj [[user_name]]"
		},
		"footer": {
			"legalText": "",
			"salusCompanyAddress": "850 Main St, Redwood City, CA 94063",
			"salusCompanyName": "Salus Controls, Inc",
			"salusCopyRightHTML": "&copy; Salus Inc. 2016",
			"salusWebSiteText": "www.salusinc.com",
			"salusWebSiteUrl": "http://www.salusinc.com"
		},
		"guest_signup_confirmation": {
			"buttonText": "Potwierdź konto",
			"contentBottomHTML": "<p>Witamy w Salus Connected Solutions!</p>",
			"contentTopHTML": "<p>Zostałeś(aś) zaproszony(a) do konta Salus należącego do [primary user]. Potwierdź teraz swoje konto gościa. Potwierdzenia można dokonać w ciągu 30 dni od dnia dzisiejszego.</p>",
			"emailSubject": "Potwierdź dostęp jako gość Salus",
			"title": "Witaj [[user_name]]!"
		},
		"password_reset": {
			"buttonText": "Resetuj hasło",
			"contentBottomHTML": "<p>Jeżeli nie prosiłeś(aś) o zresetowanie hasła lub zmnieniłeś(aś) zdanie, możesz zignorować tę wiadomość i nie musisz podejmować żadnych działań.</p><p>Masz problemy lub potrzebujesz pomocy?  Zapoznaj się z pomocnymi informacjami, które można znaleźć na stronach pomocy.</p><p>Zespół ds. usług Salus Connected Solution</p>",
			"contentTopHTML": "<p>Otrzymaliśmy od Ciebie prośbę o zresetowanie hasła. Zresetuj teraz swoje hasło. Twoja prośba o zresetowanie hasła straci ważność za 6 godzin, a z tego łącza można skorzystać tylko jeden raz.</p>",
			"emailSubject": "Żądanie resetowania",
			"title": "Witaj [[user_name]]"
		},
		"resource_share": {
			"emailBodyHTML": "[[share_owner_user_name]] granted you [[share_operation]] access to the [[share_resource_name]] with ID: [[share_resource_id]]",
			"emailSubject": "[[share_owner_user_name]] przydzielił(a) Ci dostęp [[share_operation]] do [[share_resource_name]] przy użyciu identyfikatora: [[share_resource_id]]",
			"title": "Witaj [[share_target_user_name]]"
		},
		"signup_confirmation": {
			"buttonText": "Potwierdź konto",
			"contentBottomHTML": "",
			"contentTopHTML": "<p>Dziękujemy za utworzenie profilu. Potwierdź teraz swoje konto. Potwierdzenia można dokonać w ciągu 30 dni od dnia dzisiejszego.</p><p>Po potwierdzeniu konta, przeprowadzimy Cię przez pozostałą część procesu konfiguracji.</p><p>Witamy w Salus Connected Solutions!</p>",
			"emailSubject": "Potwierdź konto Salus",
			"title": "Witaj [[user_name]]!"
		},
		"trigger_app": {
			"title": "Witaj [[user_name]]"
		}
	},
	"equipment": {
		"common": {
			"firmVer": "Wersja oprogramowania sprzętowego:",
			"mac": "Adres Mac:",
			"model": "Model:",
			"serialNum": "Nr seryjny:"
		},
		"delete": {
			"equipmentDontWorry": "Nie martw się, możesz zawsze dodać je ponownie później.",
			"gatewayWarning": "Wszelkie usługi związane z bramą zostaną jednak również usunięte.",
			"removeEquipment": "Usuń urządzenie",
			"removeEquipmentFormatted": "Usuń __modelTypeName__",
			"removeSharedEquipmentFormatted": "Usuń wspólne urządzenie __modelTypeName__",
			"sharesDontWorry": "Nie martw się, możesz zawsze dodać je ponownie później.",
			"warning": "Zamierzasz usunąć __product_name__"
		},
		"dialog": {
			"body": "Wybierz jedną z następujących opcji:",
			"changeAllDevicesFormatted": "Zmień wszystkie urządzenia __modelTypeName__",
			"changeThisDevice": "Zmień tylko to",
			"checkboxDoNotShowAgain": "Nie pokazuj tego ponownie",
			"titleFormatted": "Zamierzasz zmienić ustawienia jednego urządzenia __modelTypeName__"
		},
		"error": {
			"deviceOffline": "Urządzenie jest rozłączone",
			"eMeterGraphError": "Podczas wczytywania wykresu wystąpił problem, kliknij tutaj, aby wczytać go ponownie",
			"syncError": "Nie udało się zsynchronizować właściwości dla __device__",
			"tryAgain": "Sprawdź stan roboczy urządzenia i spróbuj ponownie później."
		},
		"gateway": {
			"address": {
				"addressLabel": "Adres",
				"cityLabel": "Miasto",
				"header": "Adres, pod jakim zainstalowane są Twoje urządzenia",
				"postcodeLabel": "Kod pocztowy",
				"stateLabel": "Stan",
				"zipLabel": "Kod pocztowy"
			},
			"deviceInputLabel": "Nazwa bramy",
			"deviceSerialNumber": "Numer seryjny bramy",
			"error": {
				"invalidDeviceSerialNumber": "Nie znaleziono bramy. Wciśnij przycisk na bramie i ponownie kliknij przycisk odświeżania wyszukiwania.",
				"registrationFailedNoNodes": "Błąd konfiguracji bramy. Odczekaj dwie minuty i spróbuj ponownie.",
				"registrationFailedUnknown": "Błąd rejestracji bramy. Spróbuj ponownie.",
				"registrationTimeout": "Upłynął czas przeznaczony na rejestrację. Wciśnij ponownie przycisk na bramie."
			},
			"header": "Aktywuj bramę",
			"instruction": "Gdy dioda bramy świeci się ciągle na niebiesko, kliknij poniższy przycisk \"Wyszukaj bramę\". Numer seryjny bramy powinien zostać wprowadzony automatycznie.",
			"searchButton": "Wyszukaj bramę",
			"subheader": "Pamiętaj o połączeniu bramy z modemem kablem ethernetowym.",
			"submitButton": "Aktywój moją bramę"
		},
		"history": {
			"headers": {
				"date": "Data",
				"event": "Wydarzenie",
				"time": "Godzina",
				"user": "Użytkownik"
			},
			"title": "Historia"
		},
		"information": {
			"headers": {
				"connection": "Połączono",
				"dsn": "Nr seryjny",
				"firmware": "Wersja oprogramowania sprzętowego",
				"mac": "Adres MAC",
				"oem": "Model",
				"version": "Wersja oprogramowania"
			},
			"title": "Informacje"
		},
		"it600Warnings": {
			"Error01": "Błąd01: Błąd sprzętowy TRV sparowanego z termostatem",
			"Error02": "Błąd02: Przegrzanie czujnika podłogowego termostatu",
			"Error03": "Błąd03: Otwarcie czujnika podłogowego termostatu",
			"Error04": "Błąd04: Zwarcie czujnika podłogowego termostatu",
			"Error05": "Błąd05: Utrata połączenia termostatu z modułem koordynacyjnym",
			"Error06": "Błąd06: Utrata połączenia termostatu z centralnym modułem okablowania",
			"Error07": "Błąd07: Utrata połączenia termostatu z TRV",
			"Error08": "Błąd08: Utrata połączenia termostatu z odbiornikiem 1",
			"Error09": "Błąd09: Utrata połączenia termostatu z odbiornikiem 2",
			"Error21": "Błąd21: Utrata połączenia TRV sparowanego z termostatem z modułem koordynacyjnym",
			"Error22": "Błąd22: Niski poziom naładowania baterii TRV sparowanego z termostatem",
			"Error23": "Błąd23: Termostat otrzymał wiadomość od niesparowanego TRV lub TRV otrzymał wiadomość od niesparowanego termostatu",
			"Error24": "Błąd24: Termostat został odrzucony przez centralny moduł okablowania",
			"Error25": "Błąd25: Utrata połączenia termostatu z modułem nadrzędnym",
			"Error30": "Błąd30: Błąd związany z mechanizmem TRV sparowanego z termostatem",
			"Error31": "Błąd31: Błąd związany z dostosowaniem TRV sparowanego z termostatem",
			"Error32": "Błąd32: Niski poziom naładowania baterii termostatu",
			"modal": {
				"title": "Aktualne błędy IT600"
			}
		},
		"myEquipment": {
			"categories": {
				"noEquipment": "Nie masz urządzenia tego typu",
				"schedules": {
					"scheduleButton": "Utwórz harmonogram",
					"scheduleText": "Utwórz teraz harmonogram",
					"smartPlugs": "Harmonogramy polegają na automatycznym stosowaniu preferowanych ustawień wtyczek inteligentnych. Możesz skorzystać z zalecanych harmonogramów domyślnych lub utworzyć własne harmonogramy",
					"thermostats": "Harmonogramy polegają na automatycznym stosowaniu preferowanych ustawień grzania lub chłodzenia określonych dla termostatu. Możesz skorzystać z zalecanych harmonogramów domyślnych lub utworzyć własne harmonogramy.",
					"waterHeaters": "Harmonogramy polegają na automatycznym stosowaniu preferowanych ustawień podgrzewaczy wody. Możesz skorzystać z zalecanych harmonogramów domyślnych lub utworzyć własne harmonogramy."
				},
				"thermostats": {
					"createTsc": "Dodaj nowy pojedynczy moduł sterowania",
					"individualControls": "Pojedyncze moduły sterowania",
					"singleControls": "Pojedynczy moduł sterowania",
					"thermostatsIn": "Termostaty w"
				},
				"title": "Kategorie",
				"types": {
					"carbonMonoxideDetectors": "Czujniki tlenku węgla",
					"doorMonitors": "Czujniki drzwiowe",
					"energyMeters": "Mierniki energii",
					"gateways": "Bramy",
					"smartPlugs": "Wtyczki inteligentne",
					"smokeDetectors": "Czujniki dymu",
					"thermostats": "Termostaty",
					"trvs": "Zawory grzejnikowe z głowicą termostatyczną",
					"waterHeaters": "Podgrzewacze wody",
					"windowMonitors": "Czujniki okienne",
					"wirelessUncontrollableDevices": "Bezprzewodowe urządzenia bez funkcji sterowania"
				}
			},
			"groups": {
				"addNewEquipment": "Dodaj nowe urządzenie",
				"addNewGroup": "Dodaj nową grupę",
				"groupEquipment": "Urządzenia pogrupowane",
				"success": "Udało się!",
				"successMessage": "Utworzono pojedynczy moduł sterowania termostatem.",
				"title": "Grupy",
				"ungrouped": "Urządzenia niepogrupowane"
			},
			"newGroup": {
				"createError": "Podczas tworzenia grupy wystąpił problem. Spróbuj ponownie",
				"delete": {
					"linkText": "Usuń grupę",
					"modalLabel": "Zamierzasz usunąć grupę",
					"warning": "Nie martw się, urządzenia pozostaną na koncie i będzie można zawsze utworzyć grupę ponownie."
				},
				"deviceError": "Do grup musi być przypisane przynajmniej jedno urządzenie",
				"empty": "Przepraszamy, nie masz urządzeń do wyświetlenia!",
				"nameError": "Podaj prawidłową nazwę grupy",
				"newGroupText": "Nazwa grupy urządzeń",
				"newGroupTitle": "Przypisz nazwę do grupy",
				"pageTitle": "Grupowanie urządzeń",
				"selectEquipmentTitle": "Wybierz urządzenia, które mają się znaleźć w tej grupie",
				"updateError": "Podczas aktualizowania grupy wystąpił problem. Spróbuj ponownie"
			},
			"subHeader": "Uporządkuj urządzenia w wybrany przez siebie sposób - według kategorii, lokalizacji lub swoich własnych kryteriów.",
			"title": "Moje urządzenia"
		},
		"names": {
			"carbonMonoxideDetector": "Czujnik CO",
			"coordinatorDevice": "Urządzenie koordynacyjne",
			"doorMonitor": "Czujnik drzwiowy",
			"energyMeter": "Miernik energii",
			"gateway": "Brama",
			"gatewayNode": "Węzeł bramowy",
			"generic": "Urządzenia",
			"iT600BoilerReceiver": "Odbiornik kotłowy",
			"iT600Thermostat": "Termostat IT600",
			"iT600Trv": "TRV",
			"iT600WiringCenter": "Centralny moduł okablowania",
			"miniSmartPlug": "Wtyczka inteligentna",
			"smartPlug": "Wtyczka inteligentna",
			"smokeDetector": "Czujnik dymu",
			"thermostat": "Termostat",
			"waterHeater": "Podgrzewacz wody",
			"windowMonitor": "Czujnik okienny"
		},
		"oneTouch": {
			"automations": {
				"addNew": "Dodaj nową regułę OneTouch",
				"added": "Dodano regułę OneTouch",
				"title": "OneTouch"
			},
			"create": {
				"criteriaSection": "Ustaw reguły",
				"defaultRuleName": "Nowa reguła OneTouch __ruleNum__",
				"include": "Czy uwzględnić tę regułę OneTouch w statusie?",
				"missingCriteriaError": "Wybierz przynajmniej jedno działanie",
				"nameSection": "Nazwij tę regułę OneTouch",
				"nameTextbox": "Np. oświetlenie werandy",
				"pin": {
					"pinText": "Przypnij",
					"subtitle": "Czy chcesz przypiąć tę regułę OneTouch do pulpitu?",
					"unpinText": "Nie przypinaj"
				},
				"subtitle": "",
				"title": "Utwórz nową regułę OneTouch"
			},
			"criteria": {
				"andWhen": "i kiedy",
				"buttonPress": "Wciśnięto przycisk Uruchom teraz",
				"dayOfWeek": {
					"everyday": "Codziennie",
					"prefix": "Dzień tygodnia to __val__",
					"weekdays": "Dni powszednie",
					"weekends": "Weekendy"
				},
				"doThis": "zrób to",
				"orWhen": "lub kiedy",
				"propVal": {
					"doorWindow": {
						"closed": "zamknięte",
						"open": "otwarte"
					},
					"generic": "Ustaw __device_name__ na __val__",
					"is": "to __val__",
					"isBetween": "mieści się w przedziale od __lower_val__ do __upper_val__",
					"isGreaterThan": "jest większa niż __val__",
					"isLessThan": "jest mniejsza niż __val__",
					"sensor": {
						"alerting": "powiadamianie"
					},
					"smartPlug": {
						"action": "Opcja dla __device_name__ __val__",
						"off": "WYŁ.",
						"on": "WŁ."
					},
					"thermostat": {
						"action": "Ustaw __device_name__ na __val__",
						"auto": "Tryb automatyczny",
						"cooling": "Tryb chłodzenia",
						"decreaseBy": "zmniejsz o __val__ stopni",
						"degrees": "stopnie",
						"fanAuto": "Automatyczna praca wentylatora",
						"fanOn": "Wentylator wł.",
						"heating": "Tryb grzania",
						"increaseBy": "zwiększ o __val__ stopni",
						"off": "Wył."
					},
					"waterHeater": {
						"action": "Ustaw __device_name__ na __val__",
						"boost": "wspomaganie",
						"continuous": "ciągłe",
						"off": "wył.",
						"schedule": "zgodne z harmonogramem"
					}
				},
				"sendAlert": {
					"email": {
						"prefix": "Wyślij e-mail to __val__",
						"sendEmail": "Wyślij e-mail"
					},
					"sms": {
						"prefix": "Wyślij SMS do __val__",
						"sendSMS": "Wyślij SMS"
					}
				},
				"sorry": "przepraszamy",
				"thenDoThis": "następnie zrób to",
				"thenDoThisLater": "później zrób to",
				"timeOfDay": {
					"prefix": "Pora dnia to __val__",
					"suffix": "na __val__"
				},
				"timer": {
					"baseTime": "__property_actions__ za __time_string__",
					"combined": "__hour_string__ i __min_string__",
					"hour": {
						"hour": "__time__ godzinę",
						"hours": "__time__ godziny(in)"
					},
					"min": {
						"minute": "__time__ minutę",
						"minutes": "__time__ minuty(ut)"
					},
					"now": "__property_actions__ teraz"
				},
				"unsupported": "Podane kryteria reguły nie są obecnie obsługiwane",
				"when": "kiedy"
			},
			"details": {
				"addToDash": "Dodaj do pulpitu:",
				"delete": {
					"modalText": "Reguła One Touch nie będzie już używana i zostanie usunięta z sekcji Mój status'.",
					"oneTouch": "Zamierzasz usunąć regułę __one_touch__"
				},
				"includedIn": "Ujęta w ramach:",
				"runNow": "Uruchom teraz"
			},
			"edit": {
				"title": "Edytuj regułę OneTouch"
			},
			"emails": {
				"subjectFormatted": "Uruchomiono regułę OneTouch __ruleName__",
				"usernameFormatted": "__firstname__ __lastname__"
			},
			"menus": {
				"doThis": {
					"header": "ZRÓB TO",
					"notifyMe": {
						"contactMenu": {
							"addNew": "Dodaj nowy",
							"addNewContact": "Dodaj nowy kontakt",
							"countryCode": "Kraj",
							"email": "Adres e-mail",
							"emailConfirm": "Potwierdź adres e-mail",
							"emailOptional": "Adres e-mail (opcjonalny)",
							"mobilePhone": "Numer tel. komórkowego",
							"mobilePhoneOptional": "Numer tel. komórkowego (opcjonalny)",
							"name": "Imię i nazwisko osoby kontaktowej",
							"select": "W jaki sposób powiadomienia mają być dostarczane do Ciebie i Twoich gości?"
						},
						"email": "Wyślij e-mail",
						"emailHeader": "E-mail",
						"sms": "Wyślij SMS",
						"smsHeader": "SMS"
					},
					"propertyChange": {
						"changeFanMode": "Zmień tryb wentylatora",
						"changeMode": "Zmień tryb",
						"changeSetTemp": "Zmień nastaw",
						"exactTemp": "Dokładna temperatura",
						"fanAuto": "Automatyczny",
						"fanOn": "Wentylator wł.",
						"increaseDecrease": "Zwiększ lub zmniejsz o",
						"smartPlugOff": "WYŁ. wtyczkę inteligentną",
						"smartPlugOn": "WŁ. wtyczkę inteligentną",
						"waterHeater": {
							"boost": "Ustaw w trybie wspomagającym",
							"continuous": "Ustaw w trybie pracy ciągłej",
							"off": "Wyłącz",
							"schedule": "Ustaw zgodnie z harmonogramem"
						}
					},
					"root": {
						"notifyMe": "Wyślij do mnie powiadomienie",
						"propertyChange": "Zmień właściwość urządzenia"
					}
				},
				"thenDoThis": {
					"header": "PÓŹNIEJ ZRÓB TO",
					"root": {
						"stateOfEquipment": "Stan urządzeń",
						"undo": "Cofnij"
					},
					"timer": {
						"changeCheckBox": "Zezwól użytkownikowi na zmianę czasu trwania",
						"hours": "Tyle godzin",
						"minutes": "Tyle minut",
						"title": "Po jakim czasie powinno mieć to miejsce?"
					},
					"undo": {
						"title": "Zmienić tę regułę OneTouch?"
					}
				},
				"when": {
					"dayOfWeek": {
						"finalMenu": "Wybierz dni, w które reguła OneTouch ma być stosowana.",
						"picker": "Wybierz dni tygodnia",
						"weekday": "Dni powszednie",
						"weekend": "Weekendy"
					},
					"header": "KIEDY",
					"pressAButton": {
						"button": "Uruchamianie reguły po wciśnięciu przycisku"
					},
					"root": {
						"dayOfWeek": "Dzień tygodnia",
						"pressAButton": "Wciskam przycisk",
						"stateOfEquipment": "Stan urządzeń",
						"timeOfDay": "Pora dnia",
						"weather": "Pogoda"
					},
					"stateOfEquipment": {
						"doorWindow": {
							"closed": "Jest zamknięte",
							"open": "Jest otwarte"
						},
						"equipmentCategory": "Kategorie urządzeń",
						"equipmentGroup": "Grupy urządzeń",
						"individualEquipment": "Poszczególne urządzenia",
						"sensor": {
							"alert": "Czujnik wysyła powiadomienie"
						},
						"smartPlug": {
							"off": "Wtyczka inteligentna jest WYŁ.",
							"on": "Wtyczka inteligentna jest WŁ."
						},
						"thermostats": {
							"above": "Powyżej",
							"below": "Poniżej",
							"between": "Pomiędzy",
							"enterValue": "Podaj temperaturę",
							"selectAboveValue": "Wybierz temperaturę dla pozycji Powyżej",
							"selectBelowValue": "Wybierz temperaturę dla pozycji Poniżej"
						},
						"waterHeater": {
							"boost": "Jest w trybie wspomagającym",
							"continuous": "Jest w trybie pracy ciągłej",
							"off": "Jest wyłączony",
							"schedule": "Pracuje zgodnie z harmonogramem"
						}
					},
					"timeOfDay": {
						"endTime": "Godzina zakończenia",
						"endTimeError": "Godzina zakończenia musi przypadać po godzinie rozpoczęcia",
						"formatError": "Wpisz we właściwym formacie",
						"specify": "Ustaw godzinę",
						"startTime": "Godzina rozpoczęcia",
						"sunriseSunset": "Wschód/zachód słońca",
						"to": "do"
					},
					"weather": {
						"current": "Aktualna temperatura",
						"forecast": "Prognoza pogody"
					}
				}
			},
			"recommended": {
				"addRecommended": "Dodaj regułę OneTouch",
				"modal": {
					"titleFormatted": "Zastosuj regułę OneTouch '__ruleName__'"
				},
				"smartPlug": {
					"12am": {
						"description": "Wyłącz wtyczkę inteligentną o północy",
						"name": "Wyłącz o północy",
						"nameFormatted": "Wyłącz o północy: __name__"
					},
					"oneHour": {
						"description": "Włącz wtyczkę inteligentną na 1 godzinę",
						"name": "Stoper odliczający 1 godzinę",
						"nameFormatted": "Stoper odliczający 1 godzinę: __name__"
					},
					"title": "Wtyczki inteligentne",
					"turnOff": {
						"description": "Natychmiast wyłącz wtyczkę inteligentną",
						"name": "Wyłącz",
						"nameFormatted": "Wyłącz: __name__"
					}
				},
				"thermostat": {
					"title": "Termostaty",
					"turnOff": {
						"description": "Natychmiast wyłącz termostat",
						"name": "Wyłącz termostat",
						"nameFormatted": "Wyłącz termostat: __name__"
					}
				},
				"title": "Zalecane",
				"waterHeater": {
					"boostFor2": {
						"description": "Włącz tryb wspomagający na 2 godziny",
						"name": "Wspomaganie na 2 godziny",
						"nameFormatted": "Wspomaganie na 2 godziny: __name__"
					},
					"title": "Podgrzewacze wody"
				}
			}
		},
		"property": {
			"names": {
				"coolingSetpoint_x100": "Nastawa dla funkcji chłodzenia",
				"heatingControl": "Sterowanie grzaniem",
				"temperatureOffset": "Przesunięcie temperatury pokojowej",
				"cylinderConnection": "Podłączenie bojlera",
				"oUTSensorProbe": "Sonda czujnikowa",
				"oUTSensorType": "Sonda czujnikowa używana jako czujnik powietrza lub czujnik podłogowy",
				"coolingControl": "Sterowanie chłodzeniem",
				"actuatorType": "Typ urządzenia uruchamiającego",
				"valveProtection": "Zabezpieczenie zaworu",
				"frostSetpoint_x100": "Nastawa temperatury przeciwzamrożeniowej",
				"floorCoolingMin_x100": "Wartość graniczna czujnika podłogowego ustawiona dla chłodzenia",
				"floorHeatingMax_x100": "Górna wartość graniczna temperatury czujnika podłogowego",
				"floorHeatingMin_x100": "Dolna wartość graniczna temperatury czujnika podłogowego",
				"heatingSetpoint_x100": "Nastawa dla funkcji grzania",
				"holdDuration": "Czas wstrzymania (minuty)",
				"lEDMode": "Tryb LED",
				"lockKey": "Czy chcesz zmienić ustawienia blokowania termostatu?",
				"keyLock": "Czy chcesz zmienić ustawienia blokowania termostatu?",
				"maxHeatSetpoint_x100": "Wartość graniczna nastawy dla funkcji grzania",
				"minCoolSetpoint_x100": "Wartość graniczna nastawy dla funkcji chłodzenia",
				"networkLANIP": "Adres IP",
				"networkLANMode": "Tryb sieci LAN",
				"networkLANRouterAddr": "Router",
				"networkLANSubnet": "Maska podsieci",
				"networkPriDNS": "Główny DNS",
				"networkSecDNS": "Podrzędny DNS",
				"shutOffDisplay": "Wyłącz wyświetlacz LCD",
				"systemMode": "Tryb systemu",
				"temperatureDisplayMode": "Stopnie Fahrenheita LUB Celsjusza",
				"timeFormat24Hour": "Format godziny"
			},
			"values": {
				"actuatorClosed": "Rozwierny",
				"actuatorOpen": "Zwierny",
				"alwaysOn": "Zawsze wł.",
				"auto": "Automatyczny",
				"celsius": "Stopnie Celsjusza",
				"cool": "Chłodzenie",
				"cylinderConnected": "Sonda bojlera jest podłączona",
				"cylinderNotConnected": "Sonda bojlera nie jest podłączona",
				"disabled": "Wyłączono",
				"dynamic": "Dynamiczny",
				"emergencyHeating": "Ogrzewanie awaryjne",
				"enabled": "Włączono",
				"fahrenheit": "Stopnie Fahrenheita",
				"heat": "Grzanie",
				"hour12": "12:00",
				"hour24": "24:00",
				"locked": "Tak, zablokuj",
				"longCycle": "+/- 0,5  stopnia C",
				"midCyle": "+/- 0,25 stopnia C",
				"no": "Nie",
				"numberInCFormatted": "__number__ stopnie(ni) C",
				"numberInFFormatted": "__number__ stopnie(ni) F",
				"off": "Wył.",
				"offWhenIdle": "Wył. w przypadku bezczynności",
				"on": "Wł.",
				"sensorAir": "Czujnik powietrza",
				"sensorConnected": "Sonda czujnikowa jest podłączona",
				"sensorDewPointConnected": "Czujnik punktu rosy jest podłączony",
				"sensorFloor": "Czujnik podłogowy",
				"sensorNotConnected": "Nie podłączono żadnego czujnika",
				"shortCyle": "+/- 0",
				"static": "Statyczny",
				"turnOff": "Wyłącz",
				"turnOn": "Włącz",
				"unlocked": "Nie, nie blokuj",
				"yes": "Tak"
			}
		},
		"provisioning": {
			"boilerReceiver": "Odbiornik kotła iT600",
			"coMonitor": "Czujnik tlenku węgla",
			"coordinator": "Urządzenie koordynacyjne",
			"device": "Urządzenie z układem sterowania Salus",
			"doorSensor": "Czujnik drzwiowy",
			"energyMeter": "Monitor zużycia energii w całym domu",
			"gateway": "Brama uniwersalna Salus",
			"gatewayNode": "Węzeł bramowy",
			"it530Thermostat": "Termostat iT530",
			"it600Thermostat": "Termostat iT600",
			"namedEnergyMonitor": "Monitor zużycia energii __name__",
			"optimaThermostat": "Termostat Optima",
			"smartPlug": "Wtyczka inteligentna",
			"smokeAlarm": "Czujnik dymu",
			"trv": "TRV iT600",
			"windowSensor": "Czujnik okienny",
			"wiringCenter": "Centralny moduł okablowania iT600"
		},
		"schedule": {
			"create": {
				"description": "W ramach harmonogramów automatycznie wykorzystywane są preferowane ustawienia urządzeń.",
				"no": "Nie teraz",
				"question": "Czy chcesz utworzyć teraz harmonogram dla tych urządzeń?",
				"yes": "Tak, utwórz harmonogram"
			},
			"widget": {
				"title": "Harmonogram"
			}
		},
		"settings": {
			"empty": "Przepraszamy, nie ma ustawień, które można by wyświetlić!",
			"networkSettingsSaveConfirmSecondary": "Czy chcesz zapisać ustawienia sieci?",
			"networksSettingsSaveConfirmPrimary": "Zaktualizowano ustawienia sieci. W celu zapisania tych ustawień konieczne będzie pozostanie na tej stronie przez 1 minutę.",
			"networksSettingsSavingPrimary": "Zapisujemy ustawienia sieci. Nie opuszczaj tej strony.",
			"networksSettingsSavingSecondary": "Proces ten potrwa około 1 minuty.",
			"title": "Ustawienia"
		},
		"stackedBarGraph": {
			"time": "Godzina",
			"watts": "Moc"
		},
		"status": {
			"alias": "Nazwa urządzenia",
			"battery": {
				"charged": "Poziom naładowania: __val__%"
			},
			"monitoring": "Monitorowanie",
			"thermostat": {
				"lock": "Termostat zablokowany",
				"unlock": "Termostat odblokowany"
			}
		},
		"thermostat": {
			"frostPointModal": {
				"header": "Wyłącz instalację HVAC",
				"labels": {
					"buttonCancel": "Anuluj",
					"buttonTurnOff": "Wyłącz HVAC",
					"chooseFrostPoint": "Wybierz temperaturę przeciwzamrożeniową",
					"radioNo": "Nie, nie określaj nastawy temp. przeciwzamrożeniowej",
					"radioYes": "Tak, nastaw temp. przeciwzamrożeniową na"
				},
				"subHeader": "Czy chcesz nastawić temp. przeciwzamrożeniową?",
				"tempModeC": "__number__ &#8451;",
				"tempModeF": "__number__ &#8457;"
			},
			"holdPointModal": {
				"header": "Wstrzymaj ustawioną temperaturę",
				"holdTitle": "Wstrzymaj",
				"labels": {
					"btnCancel": "Anuluj",
					"btnOk": "OK",
					"radioScheduleChange": "Do następnej zmiany harmonogramu",
					"radioUntilChange": "Do momentu, aż zmienię ustawioną temperaturę"
				}
			},
			"menus": {
				"modeLabels": {
					"auto": "Automatyczny",
					"cooling": "Chłodzenie",
					"fan": "Wentylator",
					"fanOn": "Wentylator wł.",
					"followSchedule": "Stosuj harmonogram",
					"heating": "Grzanie",
					"off": "Wył.",
					"permanentHold": "Wstrzymanie na stałe",
					"systemOff": "System wył.",
					"temporaryHold": "Wstrzymanie tymczasowe"
				}
			}
		},
		"thermostatSingleControl": {
			"createPage": {
				"addButtonText": "Dodaj nowy pojedynczy moduł sterowania",
				"bottomBlurb": "Po skonfigurowaniu tego pojedynczego modułu sterowania nadal będzie można wprowadzać do niego zmiany.",
				"delete": "Usuń pojedynczy moduł sterowania",
				"deviceError": "TSC musi obejmować przynajmniej jedno podłączone urządzenie",
				"error": "Podczas tworzenia TSC wystąpił problem. Spróbuj ponownie",
				"individualControls": "Poszczególne moduły sterowania",
				"nameError": "Podaj prawidłową nazwę TSC",
				"newTSCSectionTitle": "Nazwij ten pojedynczy moduł sterowania",
				"newTSCText": "np. sypialnia na górze",
				"thermostatsSectionTitle": "Wybierz termostaty, które chcesz uwzględnić w ramach tego pojedynczego modułu sterowania.",
				"titleExisting": "Pojedyncze moduły sterowania",
				"titleNoExisting": "Konfiguracja pojedynczego modułu sterowania",
				"typeError": "W ramach TSC nie można stosować różnych modeli termostatów"
			},
			"initialSetup": {
				"description": "Zmień jeden, zmień wiele. Lorem ipsum dolor sit amet, consectetur adipiscing elit. Sed gravida bibendum dictum. Maecenas nec eleifend dui. Suspendisse mollis purus scelerisque maximus ultricies. Nulla a metus arcu. Interdum et malesuada fames ac ante ipsum",
				"prompt": "Czy chcesz skonfigurować pojedynczy moduł sterowania dla wielu termostatów?",
				"title": "Konfiguracja pojedynczego modułu sterowania"
			},
			"title": "Pojedynczy moduł sterowania termostatem"
		},
		"trv": {
			"add": "Dodaj TRV",
			"modal": {
				"title": "Wybierz TRV dla __name__",
				"tooMany": "Z jednym termostatem można skojarzyć nawet 6 TRV"
			},
			"noTrvs": "Z tym urządzeniem nie są obecnie skojarzone żadne TRV",
			"title": "TRV dla tego termostatu"
		},
		"usage": {
			"interactiveMode": "Tryb interaktywny",
			"title": "Użytkowanie"
		}
	},
	"error404": {
		"backToDash": "Wróć do stronę główną",
		"message": "Nie można znaleźć szukanej strony.",
		"title": "Błąd 404"
	},
	"errors": {
		"responseText": "Tekst odpowiedzi:",
		"serviceEndpoint": "Punkt końcowy usługi:",
		"siteMessage": "Przepraszamy, wystąpił błąd, kliknij tutaj, aby spróbować ponownie!",
		"statusCode": "Kod statusu:",
		"statusText": "Tekst statusu:"
	},
	"key": "klient-pl",
	"login": {
		"changePasswordWithToken": {
			"button": "Zapisz nowe hasło",
			"confirmPasswordLabel": "Potwierdź nowe hasło",
			"message": "Utwórz nowe hasło",
			"newPasswordLabel": "Nowe hasło",
			"resetPasswordTokenLabel": "Resetuj znacznik hasła"
		},
		"confirm": {
			"emailSent": "Wyślemy teraz e-mail do Ciebie, abyś mógł (mogła) potwierdzić swoje konto.",
			"headline": "To prawie wszystko",
			"ready": "Gotowy(a) do zalogowania się?",
			"resend": "Twoje konto jest prawie potwierdzone, __user_name__!",
			"thanks": "Dziękujemy za rejestrację, __user_name__!",
			"trustedSender": "Pamiętaj o dodaniu adresu email@salus.com do listy bezpiecznych nadawców, abyś mógł (mogła) otrzymywać od nas aktualne informacje."
		},
		"forgotPassword": {
			"backToSignInLinkLabel": "Wróć do rejestracji",
			"button": "Wyślij tymczasowy znacznik e-mailem",
			"inputLabel": "E-mail dla tego konta",
			"message": "Nie pamiętasz hasła?"
		},
		"forgotPasswordConfirmation": {
			"button": "Powrót do logowania",
			"message": "Wysłaliśmy instrukcje dotyczące resetowania hasła. Sprawdź pocztę.",
			"title": "Nie pamiętasz hasła"
		},
		"headline": "Witamy w\nSalus",
		"login": {
			"accountLink": "Skonfiguruj konto",
			"accountMessage": "Nie masz jeszcze konta?",
			"button": "Zaloguj się",
			"emailLabel": "E-mail",
			"error": {
				"accountLocked": "Twoje konto zostało zablokowane na skutek niewłaściwych prób zalogowania się. Zaczekaj 30 minut, a następnie zaloguj się ponownie.",
				"invalidLanguage": "Wybierz język",
				"invalidUsernamePassword": "Nieprawidłowe hasło lub nieprawidłowy adres e-mail. Spróbuj ponownie."
			},
			"forgotPassword": "Nie pamiętasz hasła?",
			"keepLoggedIn": "Nie wylogowuj mnie",
			"passwordLabel": "Hasło",
			"resendConfirmationEmail": "Wyślij ponownie e-mail z potwierdzeniem",
			"siloMessage": {
				"eu": "Przełącz na aplikację amerykańską",
				"us": "Przełącz na aplikację europejską"
			}
		},
		"pinpad": {
			"authInvalid": "Podany kod PIN był nieprawidłowy",
			"authSuccess": "Uwierzytelniono kod PIN",
			"pinRemoveFail": "Nie można usunąć kodu PIN",
			"pinRemoved": "Pomyślnie usunięto kod PIN",
			"setFail": "Nie można ustawić kodu PIN",
			"setSuccess": "Pomyślnie ustawiono kod PIN"
		},
		"resetPassword": {
			"changeFailed": "Nie udało się zmienić hasła",
			"requestNewToken": "Można poprosić o nowy znacznik, przechodząc do sekcji Nie pamiętasz hasła",
			"title": "Nie udało się zmienić hasła.",
			"tokensExpire": "Znaczniki tracą ważność co 6 godzin",
			"tryAgain": "W przypadku błędnego wpisania znacznika można spróbować ponownie"
		},
		"sendConfirmationEmail": {
			"backToSignInLinkLabel": "Wróć do logowania",
			"button": "Wyślij ponownie e-mail z potwierdzeniem",
			"message": "Potwierdzenie konta"
		},
		"signInWithToken": {
			"button": "Skojarz urządzenie",
			"error": {
				"invalidToken": "login.signInWithToken.error.invalidToken"
			},
			"inputLabel": "Kod aktywacyjny",
			"message": "Skojarz to urządzenie mobilne ze swoim kontem"
		},
		"welcome": {
			"accountLink": "Zaloguj się",
			"accountMessage": "Masz już konto?",
			"button": "Zarejestruj się",
			"message": "Zacznijmy."
		}
	},
	"messageCenter": {
		"alerts": {
			"alarmSounding": "Alarm jest teraz włączony",
			"alert": "Powiadomienie",
			"criteria": "Kryteria powiadamiania",
			"currentStatus": "Bieżący status",
			"dateTime": "Data i godzina",
			"details": "Szczegóły",
			"equipment": "Urządzenia",
			"subHeader": "Powiadomienia lorem ipsum dolor sit amet alipsis diam.",
			"title": "Powiadomienia"
		},
		"notifications": {
			"subHeader": "Powiadomienia wygenerowane w ciągu ostatnich 90 dni",
			"title": "Powiadomienia"
		},
		"title": "Centrum wiadomości"
	},
	"missingKey": "##############################",
	"myStatus": {
		"addNewGateway": "Dodaj nową bramę",
		"addNewStatus": "Dodaj nowy status",
		"makeNewStatus": {
			"createNewOneTouch": "Utwórz nową regułę OneTouch dla tego statusu",
			"delete": "Usuń status",
			"deleteWarning": "Usunąć ten status?",
			"editName": {
				"name": "Nazwa"
			},
			"invalidGateway": "Korzystasz z nieprawidłowej bramy. Zmień bramę lub dodaj nową, prawidłową bramę.",
			"ruleView": {
				"run": "Uruchom na początku statusu"
			}
		},
		"newStatus": {
			"createStatusTitle": "Utwórz nowy status",
			"formFields": {
				"continue": "Kontynuuj",
				"statusName": "Nazwa statusu"
			},
			"giveStatusName": "Nazwij ten status",
			"selectIcon": "Wybierz ikonę dla statusu",
			"selectIconInstructions1": "Wybierz ikonę z poziomu termostatu IT600 i steruj statusem z poziomu termostatu IT600 lub aplikacji.",
			"selectIconInstructions2": "Wybierz kolejną ikonę, aby móc sterować statusem z poziomu aplikacji.",
			"showLessIcons": "Pokaż mniej ikon",
			"showMoreIcons": "Pokaż więcej ikon"
		},
		"newStatusAdded": "Dodano nowy status",
		"noGatewayMessage": "Nie wykryto bramy. Dodaj bramę.",
		"title": "Mój status"
	},
	"schedules": {
		"deviceTypes": {
			"smartPlug": "wtyczki inteligentne",
			"thermostat": "termostaty",
			"waterHeater": "podgrzewacze wody"
		},
		"edit": {
			"changeIndividualThermostat": {
				"no": "Nie, tylko do tego",
				"subtitle": "Czy chcesz wprowadzić tę zmianę do wszystkich termostatów tego samego modelu?",
				"title": "Zamierzasz zmienić ustawienie jednego z termostatów.",
				"yes": "Tak, wprowadź ją do wszystkich urządzeń tego modelu"
			},
			"changeSingleControl": {
				"changeGroup": {
					"no": "Nie, nie teraz",
					"subtitle": "Czy na pewno chcesz to zrobić teraz?",
					"title": "Zamierzasz zmienić ustawienia wszystkich termostatów ujętych w ramach pojedynczego modułu sterowania",
					"yes": "Tak, wprowadź zmianę"
				},
				"changeSingle": {
					"changeJustThermostat": "Zmień tylko w przypadku tego termostatu",
					"changeSingleControl": "Zmień w przypadku wszystkich termostatów ujętych w ramach pojedynczego modułu sterowania",
					"subtitle": "Czy chcesz wprowadzić tę zmianę do wszystkich termostatów ujętych w ramach pojedynczego modułu sterowania?",
					"title": "Zamierzasz zmienić ustawienia jednego z termostatów ujętych w ramach pojedynczego modułu sterowania"
				}
			},
			"modal": {
				"addNew": "Dodaj nowy pojedynczy moduł sterowania",
				"deleteLabel": "Usuń pojedynczy moduł sterowania",
				"duplicateTstatsErrorBody": "Upewnij się, czy ten sam termostat nie jest zaznaczony w przypadku większej liczby pojedynczych modułów sterowania oraz czy dla wszystkich pojedynczych modułów sterowania określona jest nazwa i wybrany jest przynajmniej jeden termostat.",
				"duplicateTstatsErrorTitle": "Błąd: nie można zapisać przynajmniej jednego pojedynczego modułu sterowania.",
				"emptyIndividualControls": "Brak dostępnych indywidualnych modułów sterowania",
				"emptySingleControls": "Brak dostępnych pojedynczych modułów sterowania",
				"emptyThermostats": "Brak dostępnych termostatów",
				"individualLabel": "Indywidualne moduły sterowania",
				"nameLabel": "Nazwa pojedynczego modułu sterowania",
				"title": "Edytuj pojedyncze moduły sterowania termostatami"
			},
			"previousScreen": "< Wstępne ustawienia harmonogramu",
			"thermostatList": {
				"emptyThermostats": "Brak dostępnych termostatów lub pojedynczych modułów sterowania"
			},
			"thermostatSettings": {
				"addInterval": "Dodaj przedział czasowy",
				"apply": "Zastosuj harmonogram",
				"cancel": "Anuluj",
				"description": "Lorem ipsum dolor sit amet, in molestie sententiae pro, an qui sint iuvaret officiis. Aperiri equidem ea vis, eam natum affert vituperata ex, nec ne constituam philosophia.",
				"start": "GODZINA ROZPOCZĘCIA",
				"temp": "TEMPERATURA"
			}
		},
		"emptyView": {
			"message": "Nie masz __type__ w tej bramie. Dodaj __type__, aby można było tworzyć dla nich harmonogramy."
		},
		"presets": {
			"description": "Na podstawie popularnych schematów dnia stworzyliśmy trzy wstępnie ustawione harmonogramy. Wybierz jeden z tych trzech harmonogramów lub utwórz własny harmonogram.",
			"presetSchedules": {
				"createNew": {
					"description": "Skonfiguruj własne harmonogramy dla termostatów, aby Twój dom działał dokładnie tak, jak chcesz.",
					"title": "Utwórz mój własny harmonogram"
				},
				"mostlyAway": {
					"description": "Przeznaczony dla tych, którzy więcej czasu spędzają poza domem niż w domu.",
					"title": "Poza domem przez większość czasu"
				},
				"mostlyHome": {
					"description": "Przeznaczony dla tych, którzy więcej czasu spędzają w domu niż poza domem.?",
					"title": "W domu przez większość czasu"
				},
				"workingWeek": {
					"description": "Dla domów, których mieszkańcy prowadzą tradycyjny styl życia (9-18, od poniedziałku do piątku, weekendy w domu).",
					"title": "Tradycyjny tydzień pracy"
				}
			},
			"title": "Wybierz wstępnie ustawiony harmonogram lub utwórz swój własny harmonogram"
		},
		"schedule": {
			"addInterval": "Dodaj przedział czasowy",
			"columnLabels": {
				"mode": "SYSTEM MODE",
				"startTime": "GODZINA ROZPOCZĘCIA",
				"temperature": "TEMPERATURA"
			},
			"deleteInterval": "Usuń przedział czasowy",
			"newInterval": {
				"add": "Dodaj",
				"mode": {
					"cool": "Chłodzenie",
					"heat": "Grzanie",
					"off": "Wył.",
					"on": "Wł.",
					"title": "Tryb:"
				},
				"startTime": "Godzina rozpoczęcia",
				"temperature": "Temperatura",
				"temperatureError": "Nieprawidłowa wartość temperatury. Wprowadź wartość liczbową z przedziału od __floor__ do __ceiling__. Liczby dziesiętne muszą kończyć się na 0 lub 5",
				"timeError": "Wprowadzono nieprawidłową godzinę. Wpisz godzinę w formacie gg:mm",
				"title": "Dodaj nowy przedział czasowy",
				"update": "Aktualizuj"
			},
			"noIntervals": "Brak przedziałów czasowych w tym harmonogramie.",
			"weekConfigurations": {
				"MO-FR": "PO - PI",
				"MO-SU": "PO - NI",
				"SA-SU": "SO - NI"
			},
			"weekDropdown": {
				"daily": "Codziennie",
				"fullWeek": "W domu przez większość czasu / PO - NI",
				"workWeek": "Tydzień pracujący / PO - PI i SO + NI"
			}
		},
		"smartPlug": {
			"title": "Harmonogram dla wtyczki inteligentnej"
		},
		"thermostat": {
			"duplicateSchedule": {
				"description": "Dla którego(ych) termostatu(ów) chcesz powielić ten harmonogram?",
				"duplicate": "Powiel",
				"error": "Aby można było powielić harmonogram, muszą być zapisane wpisy harmonogramu. Sprawdź, czy masz zapisany harmonogram.",
				"title": "Powiel harmonogram"
			},
			"instructions": "Wybierz rodzaj harmonogramu, który chcesz utworzyć dla tego pojedynczego modułu sterowania",
			"selectionTitle": "Wybierz konfigurację harmonogramu",
			"subtitle": "Utwórz własny harmonogram",
			"title": "Harmonogram dla termostatu"
		},
		"waterHeater": {
			"title": "Harmonogram dla podgrzewacza wody"
		}
	},
	"settings": {
		"about": {
			"buildDateTitle": "Data kompilacji",
			"companyName": "Salus Controls Inc.",
			"companyTitle": "Firma",
			"copyrightFormatted": "© __currentYear__ Salus Controls Inc.",
			"releasedTitle": "Wydana",
			"versionTitle": "Wersja"
		},
		"dataCollection": {
			"options": {
				"off": "Masz prawo zawsze wyłączyć funkcję zbierania danych. Wyłączenie tej funkcji spowoduje automatyczne wyłączenie aplikacji, w wyniku czego zarządzanie urządzeniami lub usługą za pomocą własnego komputera lub urządzenia mobilnego nie będzie możliwe. Możliwe jest zawsze ręczne zarządzanie urządzeniami. Zapoznaj się ze wskazówkami zamieszczonymi w instrukcji obsługi urządzeń.",
				"on": "Zalecamy pozostawienie tej funkcji włączonej. Dane pobierane z Twoich urządzeń oraz Twojego urządzenia mobilnego są wykorzystywane do pracy aplikacji, usług podłączonych w Twoim domu oraz wysyłania ważnych powiadomień.",
				"optionPrefix": "Funkcja zbierania danych jest",
				"referUserGuide": "Urządzeniami można zawsze zarządzać ręcznie. Zapoznaj się ze wskazówkami zawartymi w instrukcjach obsługi tych urządzeń."
			},
			"subheader": "Zdecydowałeś(aś) się wyłączyć funkcję zbierania danych. Spowodowało to wyłączenie aplikacji. Aby móc nadal korzystać z tej aplikacji, włącz funkcję zbierania danych",
			"title": "Zbieranie danych"
		},
		"manageDevices": {
			"devices": {
				"addShare": "Połącz urządzenie mobilne",
				"deleteShareModal": "Zamierzasz usunąć",
				"deleteUser": "Usuń użytkownika",
				"description": "Możesz udostępnić urządzenia SalusConnect dowolnej liczbie osób. Masz kontrolę nad tym, co Twoi goście mogą widzieć i do czego mogą mieć dostęp.",
				"empty": "Nie udostępniłeś(aś) swojego konta gościom.",
				"formHeader": "Połącz urządzenie mobilne",
				"formLabels": {
					"countrySelect": "Kraj",
					"deselectAll": "Odznacz wszystko",
					"deviceListHeader": "Przydziel temu gościowi dostęp do:",
					"email": "Adres e-mail",
					"emptyDevices": "Brak dostępnych urządzeń",
					"firstName": "Imię",
					"lastName": "Nazwisko",
					"name": "Nazwa lub nazwa zastępcza tego urządzenia",
					"selectAll": "Wybierz wszystko"
				},
				"header": "Udostępnianie konta"
			},
			"gateway": {
				"addGateway": "Dodaj bramę",
				"description": "",
				"empty": "Nie masz podłączonych bram.",
				"header": "Bramy"
			},
			"title": "Zarządzaj kontem"
		},
		"profile": {
			"changePassword": {
				"formFields": {
					"confirmPassword": "Potwierdź hasło",
					"newPassword": "Nowe hasło",
					"oldPassword": "Stare hasło"
				},
				"passwordRequirements": "Hasła muszą składać się z 6-14 znaków i muszą zawierać jedną liczbę (0-9) lub jeden symbol, jedną małą literę (a-z) i jedną wielką literę (A-Z).",
				"title": "Zmień hasło"
			},
			"deleteProfile": "Usuń profil użytkownika",
			"deleteProfileErrorMsg": "Błąd podczas usuwania profilu użytkownika. Spróbuj ponownie później.",
			"deleteProfileWarningLine1": "Usunąć Twój profil użytkownika?",
			"deleteProfileWarningLine2": "Nie można cofnąć tej operacji.",
			"formFields": {
				"email": "Adres e-mail",
				"emailConfirm": "Potwierdź adres e-mail",
				"firstName": "Imię",
				"languageSelect": "Język",
				"lastName": "Nazwisko",
				"submitButton": "Prześlij"
			},
			"title": "Edytuj profil"
		}
	},
	"setupWizard": {
		"headline": "Witamy w Salus!",
		"landing": {
			"createProfile": {
				"active": "Utworzono profil."
			},
			"equipmentConnect": {
				"button": "Podłącz urządzenia",
				"inactive": "Podłącz teraz urządzenia do bramy."
			},
			"equipmentShare": {
				"button": "Udostępnij urządzenia",
				"inactive": "Udostępnij urządzenia, przydzielając swojej rodzinie i znajomym dostęp do nich."
			},
			"gatewayConnect": {
				"active": "Brama jest teraz aktywna i gotowa do podłączenia urządzeń.",
				"button": "Aktywuj bramę",
				"inactive": "Aktywuj bramę, aby móc zacząć korzystać z urządzeń."
			},
			"header": {
				"connect": "Podłącz urządzenia do bramy",
				"gateway": "Aktywuj bramę"
			},
			"subHeaderHtml": {
				"connect": "Udało się! Utworzono Twój profil i aktywowano bramę.<br/>Połączmy teraz urządzenia i podłączmy Twoje urządzenia do bramy.",
				"gateway": "Udało się! Utworzono Twój profil i aktywowano bramę."
			}
		},
		"newUserForm": {
			"cookieModal": {
				"information": "Dzięki plikom cookie strona internetowa Salus może działać prawidłowo. Wykorzystujemy te pliki tylko do zapisywania danych logowania, umożliwiania bezpiecznego logowania oraz zbierania danych statystycznych, na podstawie których możemy optymalizować funkcjonalność strony. Do przejścia dalej konieczne jest kliknięcie przycisku Akceptuj. Prosimy zapoznać się z dodatkowymi informacjami zawartymi w naszej __privacy_policy__ ."
			},
			"equipment": "Czy masz bramę?",
			"formFields": {
				"countrySelect": "Kraj",
				"email": "Adres e-mail",
				"emailConfirm": "Potwierdź adres e-mail",
				"firstName": "Imię",
				"languageSelect": "Język",
				"lastName": "Nazwisko",
				"password": "Hasło",
				"passwordConfirm": "Potwierdź hasło",
				"phone": "Numer telefonu",
				"phoneType": "Rodzaj telefonu",
				"privacyPolicyLabel": "Akceptuję",
				"privacyPolicyLinkLabel": "Politykę prywatności firmy Salus Controls",
				"submitButton": "Utwórz mój profil",
				"termsAndConditionsLabel": "Akceptuję",
				"termsAndConditionsLinkLabel": "Warunki firmy Salus Controls"
			},
			"header": "Konfiguracja nie jest trudna.",
			"passwordRequirements": "Hasła muszą składać się z 6-14 znaków i muszą zawierać jedną liczbę (0-9) lub jeden symbol, jedną małą literę (a-z) i jedną wielką literę (A-Z).",
			"phoneTypes": {
				"phone": "Telefon",
				"tablet": "Tablet"
			},
			"subheader": "Utwórz profil",
			"tooltip": {
				"equipment": "Wysyła sygnał do urządzeń, zapewniając zdalny dostęp do nich."
			}
		},
		"pairing": {
			"buttonText": "Skanuj pod kątem urządzeń",
			"header": "Witamy! Podłączmy Twoje urządzenia",
			"noCoordinator": "Brak modułu koordynacyjnego",
			"paragraphHtml": "Przygotowując się do podłączenia urządzeń, sprawdź, czy wszystkie urządzenia są włączone.<ol><li>Aby zacząć, znajdź przycisk na każdym urządzeniu. Nie wciskaj go jeszcze. Jeżeli nie możesz znaleźć tego przycisku, zapoznaj się z instrukcją obsługi.</li><li>Następnie trzeba kliknąć pomarańczowy przycisk „Skanuj pod kątem urządzeń”, który jest widoczny poniżej. Uwaga: po kliknięciu przycisku „Skanuj pod kątem urządzeń”, przycisk dostępny na urządzeniach, o którym wspomniano w punkcie 1, należy wcisnąć w przeciągu dwóch minut. Przytrzymaj ten przycisk przez 3-5 sekund.</li><li>Powtarzaj ten proces do momentu, aż poniżej pojawią się wszystkie Twoje urządzenia. Jeżeli wszystkie urządzenia nie będą widoczne po kilkukrotnym przeprowadzeniu tego procesu, skontaktuj się z Działem Obsługi Klienta.</li></ol>",
			"requiresCoordinator": "Aby móc dodawać urządzenia, należy zarejestrować w bramie urządzenie koordynacyjne. Spróbuj ponownie zarejestrować bramę."
		},
		"provisioning": {
			"customize": {
				"access": "Dostęp",
				"accessInfo": "Czy chcesz, aby ktoś inny miał dostęp do tego urządzenia? Jeśli tak, zaznacz poniższą opcję.",
				"clampsError": "Należy wybrać 3 zaciski.",
				"clampsReading": "Wybierz zaciski, z których korzystasz",
				"completeSetup": "Zakończ konfigurację",
				"continueSetupEquipment": "Kontynuuj konfigurację urządzeń",
				"energyMonitor": "Konfiguracja miernika zużycia energii w całym domu",
				"noShares": "Obecnie nie są dostępni użytkownicy współdzieleni. Urządzenia będzie można udostępnić w każdej chwili po zakończeniu konfiguracji.",
				"oneTouch": "OneTouch",
				"oneTouchInfo": "Za pomocą reguł OneTouch można automatycznie obsługiwać przynajmniej jedno urządzenie i/lub tworzyć dla niego powiadomienia poprzez jedno stuknięcie ekranu. Wybraliśmy wstępnie opcje, które mogą odpowiadać Twoim potrzebom. Jeśli nie podobają Ci się one, wystarczy odznaczyć regułę OneTouch lub wybrać inną opcję. Reguły OneTouch można zawsze zmienić później.",
				"oneTouchPreselected": "Wybraliśmy wstępnie opcje, które mogą odpowiadać Twoim potrzebom. Jeśli nie podobają Ci się one, wystarczy odznaczyć regułę OneTouch lub wybrać inną regułę. Reguły OneTouch można zawsze zmienić później.",
				"phasesReading": "Ile faz?",
				"pin": "Czy chcesz przypiąć to urządzenie do pulpitu?",
				"pinHeader": "Przypnij",
				"pinInfo": "Przypięcie polega na umieszczeniu na pulpicie najważniejszych pozycji, do których można przejść szybko oraz bezproblemowo.",
				"selectAnother": "Wybierz kolejne urządzenie.",
				"selectPhases": "Wybierz fazy",
				"selectVoltage": "Wybierz napięcie",
				"selectWhich": "Wybierz urządzenie, od którego chcesz zacząć.",
				"setupEquipment": "Skonfigurujmy Twoje urządzenia",
				"success": {
					"mobile": {
						"description": "Szukasz wygody, jaką zapewniają aplikacje? Pobierz teraz rozwiązania, które stworzyliśmy dla Twoich urządzeń. Są one dostępne w iTunes lub GooglePlay.",
						"link": "Pobierz aplikację",
						"title": "Aplikacja mobilna"
					},
					"myDashboard": {
						"description": "Odwiedź swój nowy pulpit. Szybko sprawdzaj urządzenia i zarządzaj nimi, aby móc bezproblemowo zarządzać swoim domem z poziomu jednego ekranu. Możesz później dodać z poziomu pulpitu kolejne urządzenia.",
						"link": "Przejdź na mój pulpit",
						"title": "Mój pulpit"
					},
					"title": "Udało się!\nKonfiguracja została zakończona."
				},
				"successfullySetup": "Udało się! Konfiguracja została zakończona.",
				"voltageReading": "Jakie masz napięcie?"
			},
			"naming": {
				"nowConnected": "Poniższe urządzenia są teraz podłączone do bramy. Nazwij te urządzenia.",
				"success": "Udało się!",
				"textbox": "Nazwij to urządzenie (np. termostat w sypialni)"
			},
			"select": {
				"connect": "Podłącz urządzenia",
				"currentlyScanning": "Skanowanie pod kątem urządzeń...",
				"letsConnect": "Podłączmy Twoje urządzenia",
				"notFound": "Przepraszamy, nie znaleziono żadnych urządzeń",
				"select": "Zaznacz pole przy każdym urządzeniu, które chcesz teraz podłączyć. Kliknij przycisk \"Podłącz urządzenia\".",
				"selectError": "Zanim przejdziesz dalej, wybierz przynajmniej jedno urządzenie"
			}
		},
		"subheader": "Ponieważ dopiero zacząłeś(ęłaś) korzystać z tego rozwiązania, wykonaj kilka prostych czynności, aby móc zarządzać swoim kontem oraz swoimi urządzeniami.<br/>Zacznijmy konfigurację nowego systemu."
	}
}							
